{
  "project_info": {
    "project_number": "335123537714",
    "firebase_url": "https://easterndeals-51469.firebaseio.com",
    "project_id": "easterndeals-51469",
    "storage_bucket": "easterndeals-51469.appspot.com"
  },
  "client": [
    {
      "client_info": {
        "mobilesdk_app_id": "1:335123537714:android:1ea50fcb29ffb851",
        "android_client_info": {
          "package_name": "com.acestranetworks.easterndeals"
        }
      },
      "oauth_client": [
        {
          "client_id": "335123537714-qbhnrvm9n4ju8lli42ebtt3pc0b543kb.apps.googleusercontent.com",
          "client_type": 3
        }
      ],
      "api_key": [
        {
          "current_key": "AIzaSyBVEgrT1x3GOu-y3j-2WbmE7zigUjdUq7s"
        }
      ],
      "services": {
        "appinvite_service": {
          "other_platform_oauth_client": [
            {
              "client_id": "335123537714-qbhnrvm9n4ju8lli42ebtt3pc0b543kb.apps.googleusercontent.com",
              "client_type": 3
            }
          ]
        }
      }
    }
  ],
  "configuration_version": "1"
}